animation{
  name = "stopped",
  src_image = "npc/alttp/alttp.png",
  frame_delay = 500,
  frame_to_loop_on = 0,
  directions = {
    { x = 144, y = 192, frame_width = 24, frame_height = 32, origin_x = 12, origin_y = 29, num_frames = 2 },
    { x = 144, y = 192, frame_width = 24, frame_height = 32, origin_x = 12, origin_y = 29, num_frames = 2 },
    { x = 144, y = 192, frame_width = 24, frame_height = 32, origin_x = 12, origin_y = 29, num_frames = 2 },
    { x = 144, y = 192, frame_width = 24, frame_height = 32, origin_x = 12, origin_y = 29, num_frames = 2 },
  },
}

